/* XPM */
static char * b3_xpm[] = {
    "80 25 2 1",
    "  c black",
    "b c blue",
    "                                                                                ",
    " bbbbbbbbbbbbbbbbbbbbbbbbbbbbbbbbbbbbbbbbbbbbbbbbbbbbbbbbbbbbbbbbbbbbbbbbbbbbbb ",
    " b                                                                            b ",
    " b bbbbbbbbbbbbbbbbbbbbbbbbbbbbbbbbbbbbbbbbbbbbbbbbbbbbbbbbbbbbbbbbbbbbbbbbbb b ",
    " b b                                                                        b b ",
    " b b bbbbbbbbbbbbbbbbbbbbbbbbbbbbbbbbbbbbbbbbbbbbbbbbbbbbbbbbbbbbbbbbbbbbbb b b ",
    " b b b                                                                    b b b ",
    " b b b bbbbbbbbbbbbbbbbbbbbbbbbbbbbbbbbbbbbbbbbbbbbbbbbbbbbbbbbbbbbbbbbbb b b b ",
    " b b b b                                                                b b b b ",
    " b b b b bbbbbbbbbbbbbbbbbbbbbbbbbbbbbbbbbbbbbbbbbbbbbbbbbbbbbbbbbbbbbb b b b b ",
    " b b b b b                                                            b b b b b ",
    " b b b b b                                                            b b b b b ",
    " b b b b b                                                            b b b b b ",
    " b b b b b                                                            b b b b b ",
    " b b b b b                                                            b b b b b ",
    " b b b b bbbbbbbbbbbbbbbbbbbbbbbbbbbbbbbbbbbbbbbbbbbbbbbbbbbbbbbbbbbbbb b b b b ",
    " b b b b                                                                b b b b ",
    " b b b bbbbbbbbbbbbbbbbbbbbbbbbbbbbbbbbbbbbbbbbbbbbbbbbbbbbbbbbbbbbbbbbbb b b b ",
    " b b b                                                                    b b b ",
    " b b bbbbbbbbbbbbbbbbbbbbbbbbbbbbbbbbbbbbbbbbbbbbbbbbbbbbbbbbbbbbbbbbbbbbbb b b ",
    " b b                                                                        b b ",
    " b bbbbbbbbbbbbbbbbbbbbbbbbbbbbbbbbbbbbbbbbbbbbbbbbbbbbbbbbbbbbbbbbbbbbbbbbbb b ",
    " b                                                                            b ",
    " bbbbbbbbbbbbbbbbbbbbbbbbbbbbbbbbbbbbbbbbbbbbbbbbbbbbbbbbbbbbbbbbbbbbbbbbbbbbbb ",
    "                                                                                "
};
